835194	0.15
853991	2.55
858641	2.25
787195	0.15
841415	2.10
852366	0.60
783260	0.90
790021	2.25
858242	0.45
841225	1.05
849869	0.90
855185	0.15
855182	0.15
837669	1.35
858446	1.65
857169	0.90
862682	0.15
792735	1.95
836326	1.35
864162	0.45
849879	0.90
854698	1.05
852984	1.35
852509	2.55
774272	0.60
852380	2.55
853393	1.80
858458	2.25
853852	1.05
850269	0.30
860880	2.25
852676	2.70
852641	2.55
859091	1.05
858638	1.80
852527	3.00
852749	2.25
853673	1.35
792226	1.50
849760	3.00
862746	3.00
792506	1.80
853195	2.55
853992	2.55
854814	0.45
852513	1.20
863116	1.35
849945	2.55
836355	0.30
852410	1.05
851572	0.60
855162	1.35
841610	0.60
854048	1.05
853381	1.50
852721	3.00
852474	2.70
862725	2.55
852365	2.70
854126	0.90
864538	1.50
852875	1.50
858360	0.15
836906	1.35
849761	3.00
774657	1.05
860743	2.25
864086	0.15
853950	1.65
850114	2.55
853050	0.15
836992	0.75
863169	0.90
852389	2.70
852378	1.80
852589	1.35
864165	1.50
854924	2.25
854398	2.25
852863	3.00
836422	1.35
860982	2.25
775392	3.00
864066	2.10
839777	0.90
858497	2.25
854879	1.80
853651	1.05
850130	2.10
860761	2.25
854261	3.00
854043	2.10
852475	2.55
858930	2.25
853109	2.55
849803	1.50
852701	2.55
853019	0.60
852611	3.00
852518	2.55
852377	2.55
837107	3.00
854619	2.10
853223	1.50
852667	2.10
852816	0.90
853101	2.55
862908	0.60
824359	0.60
855155	2.70
841829	1.50
853423	3.00
835191	0.90
854157	2.10
863752	0.60
850623	1.80
863662	0.45
863151	2.70
791188	0.75
852226	2.55
863813	0.15
839776	0.15
852627	1.50
858957	0.60
842283	2.70
841399	1.35
850125	2.55
852488	1.20
852576	1.35
859130	3.00
863550	1.80
10408203	0.90
858231	2.55
838107	1.05
853576	2.25
850680	2.25
853500	2.70
852807	1.50
854981	1.20
858664	1.80
854470	2.55
852444	2.55
836662	2.55
773474	1.20
863519	1.35
862838	1.35
858408	1.80
864590	2.10
863331	3.00
860584	2.25
863213	0.60
854404	2.70
853095	2.55
863409	0.90
853270	2.55
850141	3.00
854146	2.55
850182	2.55
853907	0.45
852416	2.55
816283	2.85
850366	2.10
864178	1.95
837957	3.00
849835	2.70
863575	1.35
862871	2.10
858222	0.75
852351	1.50
850113	1.80
864082	0.45
864549	1.35
852720	2.25
854353	2.55
850421	2.70
862747	1.95
854818	2.55
852454	2.55
852548	3.00
852658	2.55
853872	2.25
852700	2.10
853349	3.00
864562	2.25
854745	1.05
854768	1.05
823770	2.25
776249	3.00
854021	2.70
852231	2.70
852479	2.55
854223	1.20
864496	1.05
863536	2.55
839190	0.15
859093	2.25
853328	0.90
859001	2.25
852458	1.50
864427	1.80
864556	2.25
863880	2.10
849786	2.70
849976	2.25
789467	0.45
854732	1.05
854052	1.80
864613	0.60
858880	2.25
854268	2.10
839786	0.15
852983	1.05
859239	1.95
862727	1.80
853781	0.15
820633	2.25
854973	1.05
858554	1.35
863511	2.70
853801	2.55
852656	2.70
854032	1.50
854819	2.55
850082	2.55
817051	1.20
854443	0.15
864278	2.55
852252	2.25
853759	1.80
853097	2.55
849827	3.00
853738	2.55
853589	2.10
852802	2.10
853352	1.80
790939	1.20
854865	3.00
854472	1.50
790382	2.55
858689	2.10
862349	2.10
852489	2.55
840563	1.05
776162	0.45
863097	1.35
840565	2.70
852910	2.55
852392	2.55
842081	2.25